<?xml version="1.0" encoding="UTF-8" standalone="no"?>
<!-- Generator: Adobe Illustrator 17.0.0, SVG Export Plug-In . SVG Version: 6.00 Build 0)  -->

<svg
   xmlns:dc="http://purl.org/dc/elements/1.1/"
   xmlns:cc="http://creativecommons.org/ns#"
   xmlns:rdf="http://www.w3.org/1999/02/22-rdf-syntax-ns#"
   xmlns:svg="http://www.w3.org/2000/svg"
   xmlns="http://www.w3.org/2000/svg"
   xmlns:sodipodi="http://sodipodi.sourceforge.net/DTD/sodipodi-0.dtd"
   xmlns:inkscape="http://www.inkscape.org/namespaces/inkscape"
   version="1.1"
   id="Слой_1"
   x="0px"
   y="0px"
   width="22"
   height="22"
   viewBox="0 0 22 22"
   enable-background="new 0 0 512 512"
   xml:space="preserve"
   inkscape:version="0.91 r13725"
   sodipodi:docname="trayicon-gray.svg"
   inkscape:export-filename="/Users/white/Documents/RGhost/RGhost Screenshot/icons/rgcom screenshot 3v31.png"
   inkscape:export-xdpi="90"
   inkscape:export-ydpi="90"><metadata
     id="metadata104"><rdf:RDF><cc:Work
         rdf:about=""><dc:format>image/svg+xml</dc:format><dc:type
           rdf:resource="http://purl.org/dc/dcmitype/StillImage" /><dc:title></dc:title></cc:Work></rdf:RDF></metadata><defs
     id="defs102"><radialGradient
       gradientTransform="matrix(2,0,0,2,-256,-256)"
       gradientUnits="userSpaceOnUse"
       r="42.872101"
       cy="330.19379"
       cx="178.1279"
       id="radialGradient4211"><stop
         id="stop4213"
         style="stop-color:#D2A43F;stop-opacity:1"
         offset="0" /><stop
         id="stop4215"
         style="stop-color:#9F693D"
         offset="0.3548" /><stop
         id="stop4217"
         style="stop-color:#6F4825"
         offset="0.6935" /><stop
         id="stop4219"
         style="stop-color:#472B0B"
         offset="1" /></radialGradient><linearGradient
       id="linearGradient6325"><stop
         style="stop-color:#3843cc;stop-opacity:1;"
         offset="0"
         id="stop6327" /></linearGradient><filter
       style="color-interpolation-filters:sRGB"
       inkscape:label="Drop Shadow"
       id="filter4871"><feFlood
         flood-opacity="0.392157"
         flood-color="rgb(0,0,0)"
         result="flood"
         id="feFlood4873" /><feComposite
         in="flood"
         in2="SourceGraphic"
         operator="in"
         result="composite1"
         id="feComposite4875" /><feGaussianBlur
         in="composite1"
         stdDeviation="5"
         result="blur"
         id="feGaussianBlur4877" /><feOffset
         dx="6.38378e-16"
         dy="10"
         result="offset"
         id="feOffset4879" /><feComposite
         in="SourceGraphic"
         in2="offset"
         operator="over"
         result="composite2"
         id="feComposite4881" /></filter><filter
       style="color-interpolation-filters:sRGB"
       inkscape:label="Drop Shadow"
       id="filter4663"><feFlood
         flood-opacity="0.69999999999999996"
         flood-color="rgb(0,0,0)"
         result="flood"
         id="feFlood4665" /><feComposite
         in="flood"
         in2="SourceGraphic"
         operator="in"
         result="composite1"
         id="feComposite4667" /><feGaussianBlur
         in="composite1"
         stdDeviation="7"
         result="blur"
         id="feGaussianBlur4669" /><feOffset
         dx="-6.38378e-16"
         dy="10"
         result="offset"
         id="feOffset4671" /><feComposite
         in="SourceGraphic"
         in2="offset"
         operator="over"
         result="composite2"
         id="feComposite4673" /></filter><filter
       style="color-interpolation-filters:sRGB"
       id="filter4227"
       inkscape:label="фильтр3" /></defs><sodipodi:namedview
     pagecolor="#ffffff"
     bordercolor="#666666"
     borderopacity="1"
     objecttolerance="10"
     gridtolerance="10"
     guidetolerance="10"
     inkscape:pageopacity="1"
     inkscape:pageshadow="2"
     inkscape:window-width="1888"
     inkscape:window-height="1269"
     id="namedview100"
     showgrid="false"
     fit-margin-top="0"
     fit-margin-left="0"
     fit-margin-right="0"
     fit-margin-bottom="0"
     inkscape:zoom="11.313708"
     inkscape:cx="-2.8545231"
     inkscape:cy="3.6576926"
     inkscape:window-x="64"
     inkscape:window-y="79"
     inkscape:window-maximized="0"
     inkscape:current-layer="g3" /><g
     id="g3"
     transform="translate(-245,-245)"><linearGradient
       id="SVGID_1_"
       gradientUnits="userSpaceOnUse"
       x1="178.1279"
       y1="260.224"
       x2="178.1279"
       y2="399.07559"
       gradientTransform="matrix(1.8945312,0,0,1.8945312,-229,-229)"><stop
         offset="0"
         style="stop-color:#E6EDF7"
         id="stop10" /><stop
         offset="1"
         style="stop-color:#ACC7E3"
         id="stop12" /></linearGradient><linearGradient
       id="SVGID_2_"
       gradientUnits="userSpaceOnUse"
       x1="178.1279"
       y1="389.35269"
       x2="178.1279"
       y2="278.49289"
       gradientTransform="matrix(1.8945312,0,0,1.8945312,-229,-229)"><stop
         offset="0"
         style="stop-color:#E6EDF7"
         id="stop17" /><stop
         offset="1"
         style="stop-color:#ACC7E3"
         id="stop19" /></linearGradient><radialGradient
       id="SVGID_3_"
       cx="178.1279"
       cy="331.5087"
       r="102.872"
       gradientUnits="userSpaceOnUse"
       gradientTransform="matrix(1.8945312,0,0,1.8945312,-229,-229)"><stop
         offset="0"
         style="stop-color:#FFF472"
         id="stop24" /><stop
         offset="0.3817"
         style="stop-color:#FFCE4E"
         id="stop26" /><stop
         offset="0.7742"
         style="stop-color:#FAAF40"
         id="stop28" /><stop
         offset="1"
         style="stop-color:#E9963B"
         id="stop30" /></radialGradient><radialGradient
       id="SVGID_4_"
       cx="113"
       cy="288.84201"
       r="22.002501"
       gradientUnits="userSpaceOnUse"
       gradientTransform="matrix(1.8945312,0,0,1.8945312,-229,-229)"><stop
         offset="0"
         style="stop-color:#D2A43F"
         id="stop35" /><stop
         offset="0.3548"
         style="stop-color:#9F693D"
         id="stop37" /><stop
         offset="0.6935"
         style="stop-color:#6F4825"
         id="stop39" /><stop
         offset="1"
         style="stop-color:#472B0B"
         id="stop41" /></radialGradient><radialGradient
       id="SVGID_5_"
       cx="243.3333"
       cy="289.17529"
       r="22.3557"
       gradientUnits="userSpaceOnUse"
       gradientTransform="matrix(1.8945312,0,0,1.8945312,-229,-229)"><stop
         offset="0"
         style="stop-color:#D2A43F"
         id="stop46" /><stop
         offset="0.3548"
         style="stop-color:#9F693D"
         id="stop48" /><stop
         offset="0.6935"
         style="stop-color:#6F4825"
         id="stop50" /><stop
         offset="1"
         style="stop-color:#472B0B"
         id="stop52" /></radialGradient><linearGradient
       id="SVGID_6_"
       gradientUnits="userSpaceOnUse"
       x1="178.1279"
       y1="281.4451"
       x2="178.1279"
       y2="379.18771"
       gradientTransform="matrix(1.8945312,0,0,1.8945312,-229,-229)"><stop
         offset="0"
         style="stop-color:#E6EDF7"
         id="stop57" /><stop
         offset="1"
         style="stop-color:#ACC7E3"
         id="stop59" /></linearGradient><linearGradient
       id="SVGID_7_"
       gradientUnits="userSpaceOnUse"
       x1="178.1279"
       y1="372.81821"
       x2="178.1279"
       y2="287.56369"
       gradientTransform="matrix(1.8945312,0,0,1.8945312,-229,-229)"><stop
         offset="0"
         style="stop-color:#E6EDF7"
         id="stop64" /><stop
         offset="1"
         style="stop-color:#ACC7E3"
         id="stop66" /></linearGradient><radialGradient
       id="SVGID_8_"
       cx="178.1279"
       cy="330.19379"
       r="42.872101"
       gradientUnits="userSpaceOnUse"
       gradientTransform="matrix(1.8945312,0,0,1.8945312,-229,-229)"><stop
         offset="0"
         style="stop-color:#D2A43F"
         id="stop71" /><stop
         offset="0.3548"
         style="stop-color:#9F693D"
         id="stop73" /><stop
         offset="0.6935"
         style="stop-color:#6F4825"
         id="stop75" /><stop
         offset="1"
         style="stop-color:#472B0B"
         id="stop77" /></radialGradient><g
       id="g83"
       transform="matrix(0.05301485,0,0,0.05301485,243.21051,241.68284)"
       style="fill:#dfdbd2;fill-opacity:1"><radialGradient
         id="SVGID_9_"
         cx="188"
         cy="344.5087"
         r="38.9487"
         gradientUnits="userSpaceOnUse"><stop
           offset="0"
           style="stop-color:#B6D7F1"
           id="stop86" /><stop
           offset="0.3441"
           style="stop-color:#26A9E0"
           id="stop88" /><stop
           offset="0.7097"
           style="stop-color:#1B75BB"
           id="stop90" /><stop
           offset="1"
           style="stop-color:#3C3392"
           id="stop92" /></radialGradient><path
         id="circle98"
         style="opacity:1;fill:#dfdbd2;fill-opacity:1"
         d="m 189.272,339.94501 a 3.2219999,3.2219999 0 0 1 -3.222,3.222 3.2219999,3.2219999 0 0 1 -3.222,-3.222 3.2219999,3.2219999 0 0 1 3.222,-3.222 3.2219999,3.2219999 0 0 1 3.222,3.222 z m -13.76,-16.457 a 5.9200001,5.9200001 0 0 1 -5.92,5.92 5.9200001,5.9200001 0 0 1 -5.92,-5.92 5.9200001,5.9200001 0 0 1 5.92,-5.92 5.9200001,5.9200001 0 0 1 5.92,5.92 z m 26.37801,6.66 a 23.761999,23.761999 0 0 1 -23.762,23.762 23.761999,23.761999 0 0 1 -23.762,-23.762 23.761999,23.761999 0 0 1 23.762,-23.762 23.761999,23.761999 0 0 1 23.762,23.762 z M 241.24354,62.570393 A 207.48903,207.48903 0 0 0 33.754505,270.05943 207.48903,207.48903 0 0 0 241.24354,477.54846 207.48903,207.48903 0 0 0 448.73257,270.05943 207.48903,207.48903 0 0 0 241.24354,62.570393 Z m -51.2828,34.151693 c 1.53328,-0.111534 2.75022,0.240058 3.24201,0.847346 17.06503,26.527848 65.70531,30.685038 74.82427,32.567528 46.40133,7.81479 84.1082,47.94711 84.1082,96.30261 l 0,23.46778 c 4.47724,10.73832 17.09529,33.59324 42.95672,31.72018 34.19042,-2.44215 9.30279,64.46967 -8.76818,51.2828 -5.86157,-4.88411 -2.47048,-21.48796 -13.70488,-20.99942 -11.2344,0.48779 -9.77251,-10.77404 -9.28397,-13.70488 0.32256,-1.93553 -4.66944,-14.71682 -11.19969,-21.92046 l 5.71038,141.58033 c 0,0 -19.3107,-10.28829 -24.68353,-9.79974 -5.37284,0.48873 -14.15294,9.31118 -19.52578,9.79974 -7.32625,0.48796 -20.59949,-9.79974 -27.92555,-9.79974 -7.81498,0 -20.93087,9.79974 -28.25712,9.79974 -6.83808,0 -19.53091,-9.79974 -26.85716,-9.79974 -7.81479,0 -21.47369,9.79974 -29.28867,9.79974 -7.32606,0 -19.53015,-9.79974 -26.85715,-9.79974 -6.3503,0 -27.11505,9.79974 -27.11505,9.79974 l 0.55262,-17.13112 -55.740574,0 c -4.582867,0 -8.326086,-3.74303 -8.326086,-8.32609 l 0,-7.33138 188.6264,0 0,-109.7496 -11.75231,0 0,-8.65767 c 0,-0.91669 -0.77798,-1.65784 -1.6947,-1.65784 l -35.84637,0 c -0.91675,0 -1.65786,0.74113 -1.65786,1.65784 l 0,8.65767 -95.49211,0 c -0.61115,-6.53308 -6.08989,-11.6418 -12.78386,-11.6418 -6.69303,0 -12.2088,5.10872 -12.8207,11.6418 l -16.57849,0 0,-7.36822 c 0,-4.58287 3.743219,-8.32609 8.326086,-8.32609 l 55.519524,0 c 1.62231,-2.66817 3.1825,-5.35729 4.19989,-7.58927 l 0,-25.60456 c 0.73111,-25.72939 7.51396,-40.73194 16.76269,-54.56165 4.39613,-6.57477 8.57598,-11.16714 15.25222,-17.02059 14.94883,-11.87705 -5.5834,-21.11505 -5.34196,-39.86206 -0.64793,-13.50994 6.82087,-17.938581 11.42074,-18.273184 z m 101.5709,107.723354 c -14.83622,0 -26.8572,12.05778 -26.85716,26.894 0,14.83622 12.02094,26.85716 26.85716,26.85716 14.83641,0 26.85715,-12.02094 26.85715,-26.85716 0,-14.83622 -12.02074,-26.894 -26.85715,-26.894 z m -75.70845,1.39996 c -14.65326,0 -26.36862,11.72516 -26.85716,26.37822 0.48873,14.65326 12.2039,26.41506 26.85716,26.41506 14.65382,0 26.36861,-11.7618 26.85715,-26.41506 -0.48873,-14.65306 -12.20409,-26.37822 -26.85715,-26.37822 z M 80.763739,277.50132 c 0.800317,0.10224 1.62979,0.44403 2.468354,1.03156 0,0 0.517164,0.2607 0.589457,0.29473 1.757732,0.82726 23.40174,11.32728 17.86793,26.37821 -5.761405,15.66995 -10.143326,12.66398 -8.805022,23.2099 1.007359,7.94464 -1.617645,21.03363 -9.062908,19.85734 -2.439009,-0.38533 -5.403135,-2.27731 -8.915545,-6.41034 -13.343609,-15.70139 -6.147037,-65.89493 5.857734,-64.3614 z m 97.371011,3.57359 a 49.116002,49.116002 0 0 1 49.10916,49.10918 49.116002,49.116002 0 0 1 -49.10916,49.10918 49.116002,49.116002 0 0 1 -49.10918,-49.10918 49.116002,49.116002 0 0 1 49.10918,-49.10918 z m 119.21777,24.42564 c -7.55317,0 -13.59437,6.18876 -13.59437,13.74174 0,7.55316 6.0412,13.59436 13.59437,13.59436 7.55316,0 13.74248,-6.0412 13.74173,-13.59436 0,-7.55298 -6.18857,-13.74174 -13.74173,-13.74174 z" /></g></g></svg>